  0.0000E+00  0.0000E+00  0.0000E+00  0.0000E+00  0.0000E+00  0.0000E+00
  0.0000E+00  0.0000E+00  0.0000E+00  0.0000E+00  0.0000E+00  0.0000E+00
  0.0000E+00  0.0000E+00  0.0000E+00  0.0000E+00  0.0000E+00  0.0000E+00
  0.0000E+00  0.0000E+00  0.0000E+00  0.0000E+00  0.0000E+00  0.0000E+00
  0.0000E+00  0.0000E+00  0.0000E+00  0.0000E+00  0.0000E+00  0.0000E+00
  0.0000E+00  0.0000E+00  0.0000E+00  0.0000E+00  0.0000E+00  0.0000E+00
  0.0000E+00  0.0000E+00  0.0000E+00  0.0000E+00  0.0000E+00  0.0000E+00
  0.0000E+00  0.0000E+00  0.0000E+00  0.0000E+00  0.0000E+00  0.0000E+00
  0.0000E+00  0.0000E+00  0.0000E+00  0.0000E+00  0.0000E+00  0.0000E+00
  0.0000E+00  0.0000E+00  0.0000E+00  0.0000E+00  0.0000E+00  0.0000E+00
  0.0000E+00  0.0000E+00  0.0000E+00  0.0000E+00  0.0000E+00  0.0000E+00
  0.0000E+00  0.0000E+00  0.0000E+00  0.0000E+00  0.0000E+00  0.0000E+00
  0.0000E+00  0.0000E+00  0.0000E+00  0.0000E+00  0.0000E+00  0.0000E+00
  0.0000E+00  0.0000E+00  2.9806E+08  7.2391E+08  7.3338E+08  7.4309E+08
  2.1367E+09  3.1298E+09  1.2641E+09  6.3931E+08  6.0755E+07  3.0446E+07
  2.1633E+07  1.8685E+07  1.5579E+07  1.5817E+07  1.5557E+07  1.3784E+07
  1.2367E+07  1.1450E+07  1.0447E+07  1.0622E+07  1.0742E+07  1.0310E+07
  1.0493E+07  1.0576E+07  1.0464E+07  1.0659E+07  1.0251E+07  9.9709E+06
  1.0168E+07  2.2430E+07  2.0564E+07  1.9520E+07  1.8852E+07  1.8621E+07
  1.8803E+07  1.9212E+07  1.9312E+07  1.8698E+07  1.6903E+07  1.6879E+07
  1.7133E+07  1.6529E+07  1.6401E+07  1.6155E+07  1.6995E+07  1.7381E+07
  1.6948E+07  1.6652E+07  1.6526E+07  1.6376E+07  1.6283E+07  1.6050E+07
  1.5988E+07  1.5512E+07  1.5916E+07  1.5694E+07  1.5805E+07  1.5977E+07
  1.5868E+07  1.5489E+07  1.5761E+07  1.5463E+07  1.5340E+07  1.5227E+07
  1.5058E+07  1.5031E+07  1.4791E+07  1.4435E+07  1.4673E+07  1.4417E+07
  1.4095E+07  1.4044E+07  1.3948E+07  1.3512E+07  1.3097E+07  1.2946E+07
  1.2726E+07  1.2614E+07  1.2580E+07  1.1950E+07  1.1605E+07  1.1272E+07
  1.0946E+07  1.0604E+07  1.0435E+07  1.0073E+07  9.7617E+06  9.5178E+06
  9.0618E+06  8.7300E+06  8.4719E+06  7.9208E+06  7.8539E+06  7.5366E+06
  7.2098E+06  7.1581E+06  6.6208E+06  6.3730E+06  6.2884E+06  6.0896E+06
  5.8604E+06  5.7249E+06  5.6011E+06  4.9963E+06  4.9964E+06  4.7358E+06
  4.5749E+06  4.4232E+06  4.3949E+06  4.0158E+06  3.6967E+06  3.5937E+06
  3.4541E+06  3.3024E+06  3.3809E+06  3.3065E+06  2.9941E+06  2.7719E+06
  2.3252E+06  2.4091E+06  2.3406E+06  2.5279E+06  2.5740E+06  2.4514E+06
  2.1743E+06  1.9598E+06  1.9485E+06  1.8537E+06  1.8537E+06  1.6554E+06
  1.5054E+06  1.5054E+06  1.6360E+06  1.6701E+06  1.6230E+06  1.6230E+06
  1.4395E+06  1.3368E+06  1.2342E+06  1.2342E+06  1.2342E+06  1.1798E+06
  1.1473E+06  1.0320E+06  1.0317E+06  1.0217E+06  9.9629E+05  9.9628E+05
  8.8628E+05  8.0295E+05  8.0295E+05  8.0295E+05  9.7740E+05  1.0185E+06
  9.4898E+05  9.4898E+05  8.8288E+05  8.1851E+05  7.9764E+05  7.8468E+05
  7.8355E+05  7.3070E+05  6.9329E+05  6.9319E+05  6.8316E+05  6.5778E+05
  6.5778E+05  6.5778E+05  6.5778E+05  6.5778E+05  5.7473E+05  5.6058E+05
  5.6057E+05  5.6058E+05  5.6057E+05  5.5658E+05  5.5123E+05  5.4074E+05
  5.1003E+05  5.1002E+05  5.1002E+05  4.7404E+05  4.7393E+05  4.7393E+05
  4.7393E+05  4.7393E+05  4.3415E+05  4.0394E+05  4.0393E+05  4.0393E+05
  4.0394E+05  4.0163E+05  3.8742E+05  3.8742E+05  3.8742E+05  3.8742E+05
  3.8742E+05  3.8988E+05  3.9088E+05  3.9088E+05  3.8714E+05  3.8264E+05
  3.6002E+05  3.0248E+05  3.0621E+05  3.3614E+05  3.3614E+05  3.1955E+05
  3.3173E+05  3.2173E+05  3.1802E+05  3.0931E+05  3.0342E+05  2.9074E+05
  2.7357E+05  2.7357E+05  2.7357E+05  2.7357E+05  2.7357E+05  2.3473E+05
  2.3458E+05  2.3458E+05  2.3458E+05  2.3459E+05  2.2167E+05  2.1183E+05
  2.1184E+05  2.1183E+05  2.1184E+05  2.0913E+05  1.9234E+05  1.9233E+05
  1.9234E+05  1.9234E+05  1.9233E+05  1.7840E+05  1.7271E+05  1.7271E+05
  1.7271E+05  1.7271E+05  1.6986E+05  1.6259E+05  1.6259E+05  1.6259E+05
  1.6259E+05  1.6259E+05  1.6342E+05  1.6356E+05  1.6356E+05  1.6356E+05
  1.6356E+05  1.5175E+05  1.3570E+05  1.3570E+05  1.3570E+05  1.3570E+05
  1.3570E+05  1.3554E+05  1.3554E+05  1.3554E+05  1.3554E+05  1.3554E+05
  1.3184E+05  1.2902E+05  1.2902E+05  1.2902E+05  1.2902E+05  1.2699E+05
  1.1435E+05  1.1435E+05  1.1435E+05  1.1435E+05  1.1435E+05  1.0523E+05
  1.0150E+05  1.0149E+05  1.0150E+05  1.0149E+05  9.5928E+04  8.1656E+04
  8.1657E+04  8.1656E+04  8.1656E+04  8.1656E+04  9.2951E+04  9.4913E+04
  9.4913E+04  9.4913E+04  9.4913E+04  8.6281E+04  7.4521E+04  7.4521E+04
  7.4521E+04  7.4521E+04  7.4521E+04  6.1552E+04  6.1482E+04  6.1482E+04
  6.1482E+04  6.1482E+04  5.6493E+04  5.2666E+04  5.2666E+04  5.2666E+04
  5.2666E+04  5.4200E+04  6.3842E+04  6.3842E+04  6.3842E+04  6.3841E+04
  6.3841E+04  5.7042E+04  5.4245E+04  5.4245E+04  5.4245E+04  5.4245E+04
  5.3570E+04  5.1834E+04  5.1834E+04  5.1834E+04  5.1834E+04  5.1834E+04
  4.8436E+04  4.7843E+04  4.7842E+04  4.7842E+04  4.7843E+04  4.5208E+04
  4.1608E+04  4.1608E+04  4.1608E+04  4.1608E+04  4.1608E+04  3.7355E+04
  3.7329E+04  3.7329E+04  3.7329E+04  3.7329E+04  3.8387E+04  3.9202E+04
  3.9202E+04  3.9201E+04  3.9202E+04  3.9728E+04  4.3059E+04  4.3059E+04
  4.3059E+04  4.3059E+04  4.3059E+04  2.9553E+04  2.3978E+04  2.3978E+04
  2.3978E+04  2.3978E+04  2.5107E+04  2.8026E+04  2.8026E+04  2.8026E+04
  2.8026E+04  2.8025E+04  2.2712E+04  2.1778E+04  2.1778E+04  2.1778E+04
  2.1778E+04  2.2753E+04  2.4090E+04  2.4090E+04  2.4090E+04  2.4090E+04
  2.4090E+04  1.8954E+04  1.8918E+04  1.8918E+04  1.8918E+04  1.8918E+04
  1.7435E+04  1.6289E+04  1.6289E+04  1.6289E+04  1.6289E+04  1.6196E+04
  1.5601E+04  1.5601E+04  1.5601E+04  1.5601E+04  1.5601E+04  1.4146E+04
  1.3543E+04  1.3543E+04  1.3543E+04  1.3543E+04  1.3819E+04  1.4535E+04
  1.4535E+04  1.4535E+04  1.4535E+04  1.4535E+04  1.4109E+04  1.4033E+04
  1.4033E+04  1.4033E+04  1.4033E+04  1.4033E+04  1.4033E+04  1.4033E+04
  1.4033E+04  1.4033E+04  1.4033E+04  1.4033E+04  1.4033E+04  1.4033E+04
  1.4033E+04  1.4033E+04  1.4033E+04  1.4033E+04  1.4033E+04  1.4033E+04
  1.4033E+04  1.4033E+04  1.4033E+04  1.4033E+04  1.4033E+04  1.4034E+04
  1.4033E+04  1.4033E+04  1.4034E+04  1.4033E+04  1.4033E+04  1.1922E+04
  1.1922E+04  1.1922E+04  1.1922E+04  1.1922E+04  1.1922E+04  1.1922E+04
  1.1922E+04  1.1922E+04  1.1922E+04  1.1922E+04  1.1922E+04  1.1922E+04
  1.1922E+04  1.1922E+04  1.1922E+04  1.1922E+04  1.1922E+04  1.1922E+04
  1.1922E+04  1.1922E+04  1.1922E+04  1.1922E+04  1.1922E+04  1.1922E+04
  1.1922E+04  1.1922E+04  1.1922E+04  1.1922E+04  1.1922E+04  1.1922E+04
  1.1922E+04  1.1922E+04  1.1922E+04  1.1922E+04  1.1922E+04  1.1922E+04
  1.1922E+04  1.1922E+04  1.1922E+04  1.1922E+04  1.1922E+04  1.1922E+04
  1.1922E+04  1.1923E+04  1.1922E+04  1.1922E+04  1.1923E+04  1.1922E+04
  1.1922E+04  0.0000E+00  0.0000E+00  0.0000E+00  0.0000E+00  0.0000E+00
  0.0000E+00  0.0000E+00  0.0000E+00  0.0000E+00  0.0000E+00  0.0000E+00
  0.0000E+00  0.0000E+00  0.0000E+00  0.0000E+00  0.0000E+00  0.0000E+00
  0.0000E+00  0.0000E+00  0.0000E+00  0.0000E+00  0.0000E+00  0.0000E+00
  0.0000E+00  0.0000E+00  0.0000E+00  0.0000E+00  0.0000E+00  0.0000E+00
  0.0000E+00  0.0000E+00  0.0000E+00  0.0000E+00  0.0000E+00  0.0000E+00
  0.0000E+00  0.0000E+00  0.0000E+00  0.0000E+00  0.0000E+00  0.0000E+00
  0.0000E+00  0.0000E+00  0.0000E+00  0.0000E+00  0.0000E+00  0.0000E+00
  0.0000E+00  0.0000E+00  0.0000E+00  0.0000E+00  0.0000E+00  0.0000E+00
  0.0000E+00  0.0000E+00  0.0000E+00  0.0000E+00  0.0000E+00  0.0000E+00
  0.0000E+00  0.0000E+00  0.0000E+00  0.0000E+00  0.0000E+00  0.0000E+00
  0.0000E+00  0.0000E+00  0.0000E+00  0.0000E+00  0.0000E+00  0.0000E+00
  0.0000E+00  0.0000E+00  0.0000E+00  0.0000E+00  0.0000E+00  0.0000E+00
  0.0000E+00  0.0000E+00  0.0000E+00  0.0000E+00  0.0000E+00  0.0000E+00
  0.0000E+00  0.0000E+00  0.0000E+00  0.0000E+00  0.0000E+00  0.0000E+00
  0.0000E+00  0.0000E+00  0.0000E+00  0.0000E+00  0.0000E+00  0.0000E+00
  0.0000E+00  0.0000E+00  0.0000E+00  0.0000E+00  0.0000E+00  0.0000E+00
  0.0000E+00  0.0000E+00  0.0000E+00  0.0000E+00  0.0000E+00  0.0000E+00
  0.0000E+00  0.0000E+00  0.0000E+00  0.0000E+00  0.0000E+00  0.0000E+00
  0.0000E+00  0.0000E+00  0.0000E+00  0.0000E+00  0.0000E+00  0.0000E+00
  0.0000E+00  0.0000E+00  0.0000E+00  0.0000E+00  0.0000E+00  0.0000E+00
  0.0000E+00  0.0000E+00  0.0000E+00  0.0000E+00  0.0000E+00  0.0000E+00
  0.0000E+00  0.0000E+00  0.0000E+00  0.0000E+00  0.0000E+00  0.0000E+00
  0.0000E+00  0.0000E+00  0.0000E+00  0.0000E+00  0.0000E+00  0.0000E+00
  0.0000E+00  0.0000E+00  0.0000E+00  0.0000E+00  0.0000E+00  0.0000E+00
  0.0000E+00
 1.000
Position #3 Normalization Factor 3.042e+11 TOT=1.11679E+10